<svg width="24" height="48" xmlns="http://www.w3.org/2000/svg" xmlns:xlink="http://www.w3.org/1999/xlink">
  <defs>
    <path id="a" d="M0 0h24v48H0z"/>
  </defs>
  <g fill="none" fill-rule="evenodd">
    <mask id="b" fill="#fff">
      <use xlink:href="#a"/>
    </mask>
    <path stroke="#FFF" stroke-width="3.5" opacity=".8" stroke-linecap="round" stroke-linejoin="round" mask="url(#b)" d="M-17 3L4 24l-21 21"/>
    <path stroke="#FFF" stroke-width="3.5" opacity=".6" stroke-linecap="round" stroke-linejoin="round" mask="url(#b)" d="M-9 2l22 22-22 22"/>
    <path stroke="#FFF" stroke-width="3.5" opacity=".4" stroke-linecap="round" stroke-linejoin="round" mask="url(#b)" d="M0 2l22 22L0 46"/>
  </g>
</svg>