<svg width="24" height="48" xmlns="http://www.w3.org/2000/svg">
  <g fill="#FFF" fill-rule="evenodd">
    <path opacity=".8" d="M4 0h4v48H4z"/>
    <path opacity=".6" d="M12 0h4v48h-4z"/>
    <path opacity=".4" d="M20 0h4v48h-4z"/>
  </g>
</svg>